Data visualization tools
…
create two datasets: left_label and right_label:

left_label should contain the rows of your summarized data from exercise 1 that are on the left hand side of the plot from exercise 2.

right_label should contain the rows of your summarized data from exercise 1 that are on the right hand side of the plot from exercise 2.

# Your code goes here

Your solution should look like this:

read_rds('solutions/03_solution.rds')

## $left_label
## # A tibble: 23 x 3
## # Groups:   city [23]
##    city          gender           revenue
##    <fct>         <fct>              <dbl>
##  1 Guadalajara   Male customers      232.
##  2 San Francisco Male customers      352.
##  3 Bellingham    Female customers    453.
##  4 Walla Walla   Female customers    488.
##  5 Victoria      Female customers   1152.
##  6 Mexico City   Male customers     1233.
##  7 Yakima        Female customers   2159.
##  8 Acapulco      Female customers   2566.
##  9 Camacho       Male customers     2154.
## 10 Orizaba       Male customers     2713.
## # ... with 13 more rows
## 
## $right_label
## # A tibble: 23 x 3
## # Groups:   city [23]
##    city          gender           revenue
##    <fct>         <fct>              <dbl>
##  1 Guadalajara   Female customers    291.
##  2 San Francisco Female customers    393.
##  3 Bellingham    Male customers      539.
##  4 Walla Walla   Male customers      676.
##  5 Victoria      Male customers     1250.
##  6 Mexico City   Female customers   1255.
##  7 Yakima        Male customers     2911.
##  8 Acapulco      Male customers     2596.
##  9 Camacho       Female customers   3643.
## 10 Orizaba       Female customers   3532.
## # ... with 13 more rows
…
