Data visualization tools
…
## Review: data summarization

Find the total `revenue` from supermarkets for each city:

```r
city_rev <- supermarket %>%
  group_by(city) %>%
  summarise(revenue = sum(revenue, na.rm = TRUE)) 

city_rev
```

```
## # A tibble: 23 x 2
##    city          revenue
##  * <chr>           <dbl>
##  1 Acapulco        5161.
##  2 Bellingham       993.
##  3 Beverly Hills  10320.
##  4 Bremerton      10975.
##  5 Camacho         5797.
##  6 Guadalajara      523.
##  7 Hidalgo        11313.
##  8 Los Angeles    12296.
##  9 Merida          8740.
## 10 Mexico City     2488.
## # ... with 13 more rows
```
…
